<?xml version="1.0" standalone="no"?>
<!DOCTYPE svg PUBLIC "-//W3C//DTD SVG 1.1//EN" "http://www.w3.org/Graphics/SVG/1.1/DTD/svg11.dtd">
<svg xmlns="http://www.w3.org/2000/svg">
<metadata>Copyright (C) 2014 by original authors @ fontello.com</metadata>
<defs>
<font id="arrow1" horiz-adv-x="1000" >
<font-face font-family="arrow1" font-weight="400" font-stretch="normal" units-per-em="1000" ascent="850" descent="-150" />
<missing-glyph horiz-adv-x="1000" />
<glyph glyph-name="arrow487" unicode="&#x30;" d="m698 313l-321-321c-21-20-54-20-74 0-21 21-21 54 0 74l284 284-284 284c-21 20-21 54 0 74 20 20 53 20 74 0l321-321c10-10 15-24 15-37s-5-27-15-37z" horiz-adv-x="1000" />
<glyph glyph-name="arrowhead7" unicode="&#x31;" d="m287 350c0 13 5 27 16 37l321 321c20 20 53 20 74 0 20-20 20-54 0-74l-285-284 285-284c20-20 20-53 0-74-21-20-54-20-74 0l-321 321c-11 10-16 24-16 37z" horiz-adv-x="1000" />
<glyph glyph-name="back36" unicode="&#x32;" d="m578 569c-12 0-23-5-31-13l-1 0-187-171c-10-9-15-22-15-35s5-26 15-35l187-171 1 0c8-8 19-13 31-13 26 0 47 21 47 47 0 14-6 26-15 35l0 0-150 137 150 137 0 1c9 8 15 20 15 34 0 26-21 47-47 47z m-78 281c-276 0-500-224-500-500s224-500 500-500 500 224 500 500-224 500-500 500z m0-906c-224 0-406 182-406 406s182 406 406 406c224 0 406-182 406-406s-182-406-406-406z" horiz-adv-x="1000" />
<glyph glyph-name="down53" unicode="&#x33;" d="m500 850c-276 0-500-224-500-500s224-500 500-500c276 0 500 224 500 500s-224 500-500 500z m0-906c-224 0-406 182-406 406s182 406 406 406c224 0 406-182 406-406s-182-406-406-406z m172 531c-14 0-26-6-35-15l0 0-137-150-137 150 0 0c-9 9-21 15-35 15-26 0-47-21-47-47 0-12 5-23 13-31l0-1 171-187c9-10 22-15 35-15 13 0 26 5 35 15l171 187 0 1c8 8 13 19 13 31 0 26-21 47-47 47z" horiz-adv-x="1000" />
<glyph glyph-name="downarrow4" unicode="&#x34;" d="m961 545c-53 123-143 212-267 265-62 27-126 40-194 40-68 0-132-13-194-40-123-53-214-142-267-265-26-62-39-127-39-194 0-68 13-133 39-195 53-123 144-213 267-266 62-27 126-40 194-40 68 0 132 13 194 40 124 53 214 143 267 266 26 62 40 127 40 195 0 67-14 132-40 194z m-56-366c-23-54-54-101-94-140-39-39-86-70-140-94-54-23-111-35-171-35-79 0-153 20-220 59-67 40-121 93-160 161-40 67-59 141-59 221s19 152 59 220c39 67 93 120 160 160 67 39 141 59 220 59 60 0 117-12 171-35 54-24 101-55 140-94 40-39 71-86 94-140 23-55 35-111 35-170 0-60-12-117-35-172z m-158 292l-244-242-250 244c-12 11-31 11-43-2-11-10-11-31 1-42l272-265c11-11 31-12 43 0l264 265c6 6 9 13 9 21 0 9-3 17-9 21-11 13-30 13-43 0z" horiz-adv-x="1001" />
<glyph glyph-name="expand22" unicode="&#x35;" d="m1000 567l-500-450-500 450 14 16 486-437 486 437 14-16z" horiz-adv-x="1000" />
<glyph glyph-name="next15" unicode="&#x36;" d="m466 350l-450-500-16 14 437 486-437 486 16 14 450-500z" horiz-adv-x="466" />
<glyph glyph-name="previous11" unicode="&#x37;" d="m28 350l438-486-16-14-450 500 450 500 16-14-438-486z" horiz-adv-x="466" />
<glyph glyph-name="right133" unicode="&#x38;" d="m454 556l0 0c-9 8-20 13-32 13-26 0-47-21-47-47 0-14 6-26 15-35l0 0 150-137-150-137 0 0c-9-9-15-21-15-35 0-26 21-47 47-47 12 0 23 5 32 13l0 0 187 171c10 9 15 22 15 35s-5 26-15 35l-187 171z m46 294c-276 0-500-224-500-500s224-500 500-500c276 0 500 224 500 500s-224 500-500 500z m0-906c-224 0-406 182-406 406s182 406 406 406c224 0 406-182 406-406s-182-406-406-406z" horiz-adv-x="1000" />
<glyph glyph-name="arrow483" unicode="&#x39;" d="m500 137c-13 0-27 5-37 16l-321 321c-20 20-20 53 0 74 21 20 54 20 74 0l284-285 284 285c20 20 54 20 74 0 20-21 20-54 0-74l-321-321c-10-11-24-16-37-16z" horiz-adv-x="1000" />
</font>
</defs>
</svg>