<?xml version="1.0" standalone="no"?>
<!DOCTYPE svg PUBLIC "-//W3C//DTD SVG 1.1//EN" "http://www.w3.org/Graphics/SVG/1.1/DTD/svg11.dtd">
<svg xmlns="http://www.w3.org/2000/svg">
<metadata>Copyright (C) 2014 by original authors @ fontello.com</metadata>
<defs>
<font id="calendar" horiz-adv-x="1000" >
<font-face font-family="calendar" font-weight="400" font-stretch="normal" units-per-em="1000" ascent="850" descent="-150" />
<missing-glyph horiz-adv-x="1000" />
<glyph glyph-name="timetable" unicode="&#x30;" d="m1024 749c-15 15-33 23-55 23h-226v43c0 20-15 35-35 35s-35-15-35-35v-43h-299v43c0 20-16 35-35 35-20 0-35-15-35-35v-43h-227c-21 0-40-8-55-23-14-15-22-33-22-54v-768c0-21 8-39 22-54 15-16 34-23 55-23h892c22 0 41 7 55 22 15 15 23 34 23 55v768c0 21-8 39-23 54z m-47-822c0-3-4-6-8-6h-892c-3 0-7 3-7 6v518h907v-518z m0 588h-907v180c0 4 3 6 7 6h227v-15c0-20 15-36 35-36 19 0 35 16 35 36v15h299v-15c0-20 15-36 35-36s35 16 35 36v15h226c5 0 8-2 8-6v-180z m-601-279h422c19 0 35 16 35 35s-16 35-35 35h-422c-20 0-36-15-36-35s16-35 36-35z m0-170h422c19 0 35 16 35 35s-16 36-35 36h-422c-20 0-36-16-36-36s16-35 36-35z" horiz-adv-x="1046" />
<glyph glyph-name="calendar48" unicode="&#x31;" d="m843 721v70h-32v-70h-116v70h-32v-70h-128v70h-32v-70h-134v70h-32v-70h-128v70h-32v-70h-114v-812h874v812h-94z m65-783h-816v573h816v-573z m0 602h-816v152h85v-74h32v74h128v-74h32v74h134v-74h32v74h128v-74h32v74h116v-74h32v74h65v-152z" horiz-adv-x="1000" />
<glyph glyph-name="calendar64" unicode="&#x32;" d="m313 381v-62c0-17-14-31-32-31h-62c-17 0-31 14-31 31v62c0 18 14 32 31 32h62c18 0 32-14 32-32z m-32-218h-62c-17 0-31-14-31-32v-62c0-17 14-31 31-31h62c18 0 32 14 32 31v62c0 18-14 32-32 32z m250 250h-62c-17 0-31-14-31-32v-62c0-17 14-31 31-31h62c18 0 32 14 32 31v62c0 18-14 32-32 32z m0-250h-62c-17 0-31-14-31-32v-62c0-17 14-31 31-31h62c18 0 32 14 32 31v62c0 18-14 32-32 32z m250 250h-62c-17 0-31-14-31-32v-62c0-17 14-31 31-31h62c18 0 32 14 32 31v62c0 18-14 32-32 32z m0-250h-62c-17 0-31-14-31-32v-62c0-17 14-31 31-31h62c18 0 32 14 32 31v62c0 18-14 32-32 32z m-562 500h62c18 0 32 14 32 31v125c0 17-14 31-32 31h-62c-17 0-31-14-31-31v-125c0-17 14-31 31-31z m781-63v-625c0-69-56-125-125-125h-750c-69 0-125 56-125 125v625c0 69 56 125 125 125h31v-31c0-35 28-63 63-63h62c35 0 63 28 63 63v31h312v-31c0-35 28-63 63-63h62c35 0 63 28 63 63v31h31c69 0 125-56 125-125z m-62-125c0 34-28 63-63 63h-750c-34 0-62-29-62-63v-500c0-35 28-63 62-63h750c35 0 63 28 63 63v500z m-219 188h62c18 0 32 14 32 31v125c0 17-14 31-32 31h-62c-17 0-31-14-31-31v-125c0-17 14-31 31-31z" horiz-adv-x="1000" />
<glyph glyph-name="calendar68" unicode="&#x33;" d="m125 694v125c0 17 14 31 31 31s32-14 32-31v-125c0-17-14-31-32-31s-31 14-31 31z m531-31c18 0 32 14 32 31v125c0 17-14 31-32 31s-31-14-31-31v-125c0-17 14-31 31-31z m344-563c0-138-112-250-250-250s-250 112-250 250 112 250 250 250 250-112 250-250z m-62 0c0 103-85 188-188 188s-187-85-187-188 84-188 187-188 188 85 188 188z m-688 375h-125v-125h125v125z m-125-312h125v125h-125v-125z m188 187h125v125h-125v-125z m0-187h125v125h-125v-125z m-250-57v432h687v-125h63v243c0 38-31 69-68 69h-26v-31c0-35-28-63-63-63s-62 28-62 63v31h-375v-31c0-35-28-63-63-63s-62 28-62 63v31h-26c-38 0-68-31-68-69v-550c0-38 30-68 68-68h370v62h-370c-3 0-5 3-5 6z m562 244v125h-125v-125h125z m219-250h-94v94c0 17-14 31-31 31s-31-14-31-31v-125c0-17 14-31 31-31h125c17 0 31 14 31 31s-14 31-31 31z" horiz-adv-x="1000" />
<glyph glyph-name="calendar112" unicode="&#x34;" d="m740 636h-22v24c0 30-24 55-53 55s-54-25-54-55v-24h-55v24c0 30-23 55-53 55s-53-25-53-55v-24h-55v24c0 30-24 55-54 55s-53-25-53-55v-24h-28c-47 0-85-39-85-85v-480c0-47 38-86 85-86h480c47 0 85 39 85 86v480c0 46-38 85-85 85z m-99 24c0 13 11 25 24 25s23-12 23-25v-98c0-14-10-25-23-25s-24 11-24 25v98z m-161 0c0 13 10 25 23 25s23-12 23-25v-98c0-14-10-25-23-25s-23 11-23 25v98z m-162 0c0 13 11 25 23 25s24-12 24-25v-98c0-14-11-25-24-25s-23 11-23 25v98z m457-589c0-20-16-35-35-35h-480c-19 0-35 15-35 35v440h550v-440z" horiz-adv-x="1000" />
<glyph glyph-name="calendar130" unicode="&#x35;" d="m1071 803v47h-84v-47h-133v47h-84v-47h-99v47h-84v-47h-138v47h-84v-47h-134v47h-84v-47h-147v-953h1218v953h-147z m-924-52v-54c-8-10-13-22-13-35 0-31 25-56 56-56 31 0 56 25 56 56 0 14-6 27-15 37v52h134v-61c-9-10-14-22-14-36 0-31 25-56 56-56s55 25 55 56c0 14-5 26-13 36v61h138v-61c-8-10-14-22-14-36 0-31 25-56 56-56 31 0 56 25 56 56 0 14-6 26-14 36v61h99v-61c-9-10-14-22-14-36 0-31 25-56 56-56 31 0 56 25 56 56 0 14-6 26-14 36v61h133v-61c-8-10-13-22-13-36 0-31 25-56 55-56 31 0 56 25 56 56 0 14-5 26-14 36v61h95v-349h-198-13-224-6-224-14-224-6-205v349h95z m-95-484h198v-109h-198v109z m218 0h217v-109h-217v109z m230 0l0 0h218v-109h-217 0v109z m238 0h217v-109h-217v109z m230 0h198v-109h-198v109z m198 13h-198v109h198v-109z m-211 0h-217v109h217v-109z m-237 0h-217v109h217v-109z m-231 0l0 0h-217v109h217v-109z m-237 0h-198v109h198v-109z m-198-135h198v-109h-198v109z m218 0h217 0v-109h-217v109z m231 0h217v-109h-217v109z m237 0h217v-109h-217v109z m230 0h198v-109h-198v109z m-916-243v121h205 6 225 13 224 6 224 13 198v-121h-1114z" horiz-adv-x="1218" />
<glyph glyph-name="calendar160" unicode="&#x36;" d="m725 660h-67v59c0 12-10 22-22 22-13 0-23-10-23-22v-59h-232v59c0 12-10 22-23 22-12 0-22-10-22-22v-59h-61c-55 0-101-45-101-101v-499c0-56 46-101 101-101h450c56 0 101 45 101 101v499c0 56-45 101-101 101z m-450-45h61v-28c0-12 10-22 22-22 13 0 23 10 23 22v28h232v-28c0-12 10-22 23-22 12 0 22 10 22 22v28h67c31 0 56-25 56-56v-56h-562v56c0 31 25 56 56 56z m450-611h-450c-31 0-56 25-56 56v398h562v-398c0-31-25-56-56-56z m-341 393h-92c-12 0-22-10-22-23v-92c0-12 10-22 22-22h92c13 0 23 10 23 22v92c0 13-10 23-23 23z m-22-92h-47v47h47v-47z m184 90h-92c-12 0-22-10-22-22v-93c0-12 10-22 22-22h92c12 0 23 10 23 22v93c0 12-11 22-23 22z m-22-92h-48v47h48v-47z m182 92h-92c-12 0-22-10-22-22v-93c0-12 10-22 22-22h92c13 0 23 10 23 22v93c0 12-10 22-23 22z m-22-92h-47v47h47v-47z m-300-78h-92c-12 0-22-10-22-23v-92c0-12 10-22 22-22h92c13 0 23 10 23 22v92c0 13-10 23-23 23z m-22-92h-47v47h47v-47z m182 92h-92c-12 0-22-10-22-23v-92c0-12 10-22 22-22h92c13 0 23 10 23 22v92c0 13-10 23-23 23z m-22-92h-47v47h47v-47z m183 92h-92c-13 0-23-10-23-23v-92c0-12 10-22 23-22h92c12 0 22 10 22 22v92c0 13-10 23-22 23z m-23-92h-47v47h47v-47z" horiz-adv-x="1000" />
<glyph glyph-name="calendar164" unicode="&#x37;" d="m762 591c-28 21-69 14-102 10 0 4 0 8 0 12 0 16 0 31-2 47-2 19-13 49-37 46-23-3-26-33-27-51-2-18-3-42 1-61-49-2-98 1-147 7-9 1-23 3-39 6 1 21 0 42-3 63-3 19-12 38-34 38-20 0-26-24-28-39-3-16-5-37-2-55-61 3-123-5-125-56-1-1-1-3-1-5-1-51-8-103-12-154-6-66-3-134-3-200 0-40-19-104 5-140 19-28 49-39 80-46 81-18 166-2 248 0 73 2 172-24 230 34 29 29 27 88 28 125 1 68-12 133-11 198 1 57 36 179-19 221z m-69-549c-63-14-132 2-197-3-70-5-143-12-213 3-49 11-62 40-59 88 3 54 4 107 4 160 0 49 6 99 10 148 86-7 174-3 259-3 89-1 177 0 266 7-3-47-8-93-5-140 3-49 8-97 8-146-2-56-12-100-73-114z m-341 365c-17 18-53 6-73 1-1 0-2-1-3-2-5 0-9-3-10-9-3-21-3-41 0-61 1-6 7-9 12-9 24 0 48-3 73 0 7 1 13 5 13 13-1 20 3 50-12 67z m126-1c-13 3-26 4-39 4-11 0-27 0-37-6-4-2-6-7-5-11-1-3-2-7-3-10-3-14-3-29-4-43 0-5 4-11 9-12 24-4 48-4 73-4 7 0 12 6 12 12 0 18 0 36 3 54 1 7-2 14-9 16z m113-7c-16 19-40 20-61 11-2-1-3-2-5-3-3 4-10 4-13-2-8-21-11-46-12-69 0-7 6-12 13-13 25-2 48 5 73 6 7 0 13 6 13 13 0 19 5 41-8 57z m122 10c-15 0-29 0-44-1-11 0-29 2-35-10-1-1-1-3-1-4-12-10-7-42-8-53 0-7 6-12 12-12 24-1 48-1 73-1 5 0 11 4 12 9 3 19 4 38 4 58 0 9-6 14-13 14z m-360-120c-23 0-46 0-70 0-5 0-12-4-13-10-3-18-3-36-3-55 0-3 1-6 3-8 0-3 1-7 5-9 24-10 52-7 78-6 7 0 13 6 13 13 0 20 0 40 0 60 0 9-5 15-13 15z m10-128c0 7-6 13-13 13-22 0-49 1-67-14-15-13-19-46-12-63-1-3 1-8 5-8 25-4 52-5 77-6 6 0 13 6 12 12-2 21-2 44-2 66z m121 121c1 7-6 13-12 12-19 0-38-3-57-3-3 0-6-1-8-3-11-2-14-9-15-20-2-16 0-31-1-47 0-7 6-12 12-12 23-1 46 0 70 0 9 0 13 8 12 16-5 19-4 38-1 57z m-16-106c-12-2-25-4-37-5-5-1-10 0-15-2-2-1-3-1-5-2 0 0-1-1-1-1-1-1-2-1-3-2-2-1-3-2-3-4-6-20-7-42-8-62 0-5 4-11 9-12 21-3 42-4 64-4 7 0 11 6 12 12 3 23 3 46 3 70 0 9-8 13-16 12z m133-69c-2 17-2 34 0 51 1 9-3 15-12 16-11 2-23 1-34-1-11-1-22-1-33-4-6-2-9-8-8-14-4-18-4-37-10-54-3-7 4-15 12-15 24 0 48 5 73 6 9-1 13 7 12 15z m-18 187c-19 0-39 0-58-3-4-1-8-5-9-9-3-13-6-36 0-50-8-3-7-15 3-16 19-1 39 0 57-3 8-2 15 3 15 12 0 18 0 36 3 54 2 7-2 15-11 15z m130-21c0 9-8 13-15 12-18-3-39-3-55-14-8-6-12-13-14-23-2-10-2-27 9-32 0 0 0 0 0 0 1-2 3-3 5-4 18-4 38-2 57-3 7 0 11 6 12 12 2 17 1 35 1 52z m6-118c-1 5-7 9-12 9-12 0-24-1-37-2-10-1-20 0-28-6-2-2-3-5-3-7-8-15-7-32-10-48-1-7 3-16 12-15 23 3 46 3 70 3 7 0 12 6 12 12 0 18-1 36-4 54z" horiz-adv-x="1000" />
<glyph glyph-name="monthly5" unicode="&#x38;" d="m944-12c0-53-43-96-96-96h-696c-53 0-96 43-96 96v613c0 53 43 96 96 96h696c53 0 96-43 96-96v-613z m-55 613c0 22-18 41-41 41h-696c-23 0-41-19-41-41v-613c0-23 18-41 41-41h696c23 0 41 18 41 41v613z m-96-612h-87c-8 0-14 6-14 14s6 14 14 14h87c14 0 24 2 24 32 0 8 7 14 15 14s15-6 15-14v-5c0 0-1-1-1-2-2-35-21-53-53-53z m39 105c-4 0-8 2-10 4-3 3-4 6-4 10 0 4 1 7 4 10 5 5 14 5 20 0 2-3 4-6 4-10 0-3-2-7-4-10-3-2-7-4-10-4z m-571 214h-14c-7 0-14 7-14 14s7 14 14 14h14c8 0 14-6 14-14s-6-14-14-14z m97 0h-14c-7 0-13 7-13 14s6 14 13 14h14c8 0 14-6 14-14s-6-14-14-14z m98 0h-14c-8 0-14 7-14 14s6 14 14 14h14c7 0 13-6 13-14s-6-14-13-14z m83 0h-14c-8 0-14 7-14 14s6 14 14 14h14c8 0 14-6 14-14s-6-14-14-14z m97 0h-14c-7 0-14 7-14 14s7 14 14 14h14c8 0 14-6 14-14s-6-14-14-14z m97 0h-14c-7 0-13 7-13 14s6 14 13 14h14c8 0 14-6 14-14s-6-14-14-14z m-472-83h-14c-7 0-14 6-14 14s7 14 14 14h14c8 0 14-6 14-14s-6-14-14-14z m97 0h-14c-7 0-13 6-13 14s6 14 13 14h14c8 0 14-6 14-14s-6-14-14-14z m98 0h-14c-8 0-14 6-14 14s6 14 14 14h14c7 0 13-6 13-14s-6-14-13-14z m83 0h-14c-8 0-14 6-14 14s6 14 14 14h14c8 0 14-6 14-14s-6-14-14-14z m97 0h-14c-7 0-14 6-14 14s7 14 14 14h14c8 0 14-6 14-14s-6-14-14-14z m97 0h-14c-7 0-13 6-13 14s6 14 13 14h14c8 0 14-6 14-14s-6-14-14-14z m-472-167h-14c-7 0-14 7-14 14s7 14 14 14h14c8 0 14-6 14-14s-6-14-14-14z m97 0h-14c-7 0-13 7-13 14s6 14 13 14h14c8 0 14-6 14-14s-6-14-14-14z m98 0h-14c-8 0-14 7-14 14s6 14 14 14h14c7 0 13-6 13-14s-6-14-13-14z m83 0h-14c-8 0-14 7-14 14s6 14 14 14h14c8 0 14-6 14-14s-6-14-14-14z m-278 84h-14c-7 0-14 6-14 14s7 13 14 13h14c8 0 14-6 14-13s-6-14-14-14z m97 0h-14c-7 0-13 6-13 14s6 13 13 13h14c8 0 14-6 14-13s-6-14-14-14z m98 0h-14c-8 0-14 6-14 14s6 13 14 13h14c7 0 13-6 13-13s-6-14-13-14z m83 0h-14c-8 0-14 6-14 14s6 13 14 13h14c8 0 14-6 14-13s-6-14-14-14z m97 0h-14c-7 0-14 6-14 14s7 13 14 13h14c8 0 14-6 14-13s-6-14-14-14z m97 0h-14c-7 0-13 6-13 14s6 13 13 13h14c8 0 14-6 14-13s-6-14-14-14z m-483 402c-15 0-28 13-28 28v209c0 15 13 27 28 27s28-12 28-27v-209c0-15-13-28-28-28z m486 0c-15 0-28 13-28 28v209c0 15 13 27 28 27s28-12 28-27v-209c0-15-13-28-28-28z m178-111h-833c-8 0-14 7-14 14s6 14 14 14h833c8 0 14-6 14-14s-6-14-14-14z" horiz-adv-x="1000" />
<glyph glyph-name="small58" unicode="&#x39;" d="m917 756h-136v63c0 17-14 31-31 31s-31-14-31-31v-63h-188v63c0 17-14 31-31 31s-31-14-31-31v-63h-188v63c0 17-14 31-31 31s-31-14-31-31v-63h-136c-46 0-83-37-83-83v-740c0-46 37-83 83-83h834c46 0 83 37 83 83v740c0 46-37 83-83 83z m21-823c0-11-10-21-21-21h-834c-11 0-20 10-20 21v740c0 11 9 21 20 21h136v-63c0-17 14-31 31-31s31 14 31 31v63h188v-63c0-17 14-31 31-31s31 14 31 31v63h188v-63c0-17 14-31 31-31s31 14 31 31v63h136c11 0 21-10 21-21v-740z" horiz-adv-x="1000" />
</font>
</defs>
</svg>